<svg width="48" height="48" viewBox="0 0 48 48" fill="none" xmlns="http://www.w3.org/2000/svg">
<path d="M38.1274 2H10.3108C6.83114 2 4 4.83124 4 8.31083V40.6892C4 44.1689 6.83124 47 10.3108 47H38.1274C41.6071 47 44.4382 44.1688 44.4382 40.6892V8.31083C44.4386 4.83114 41.6074 2 38.1274 2V2ZM40.5968 40.6894C40.5968 42.051 39.489 43.1588 38.1274 43.1588H10.3108C8.94916 43.1588 7.8414 42.0509 7.8414 40.6894V33.281H40.597L40.5968 40.6894ZM40.5968 29.4393H7.8412V19.5611H40.5968V29.4393ZM40.5968 15.7196H7.8412V8.31123C7.8412 6.94955 8.94906 5.84179 10.3106 5.84179H38.1272C39.4889 5.84179 40.5966 6.94965 40.5966 8.31123L40.5968 15.7196ZM35.3781 8.8606C34.2163 8.8606 33.2746 9.8023 33.2746 10.9641C33.2746 12.1259 34.2163 13.0676 35.3781 13.0676C36.5398 13.0676 37.4816 12.1259 37.4816 10.9641C37.4816 9.80236 36.5399 8.8606 35.3781 8.8606V8.8606ZM35.3781 26.604C36.5398 26.604 37.4816 25.6623 37.4816 24.5005C37.4816 23.3387 36.5399 22.397 35.3781 22.397C34.2163 22.397 33.2746 23.3387 33.2746 24.5005C33.2746 25.6623 34.2163 26.604 35.3781 26.604ZM35.3781 40.3236C36.5398 40.3236 37.4816 39.3819 37.4816 38.2201C37.4816 37.0583 36.5399 36.1166 35.3781 36.1166C34.2163 36.1166 33.2746 37.0583 33.2746 38.2201C33.2746 39.3819 34.2163 40.3236 35.3781 40.3236Z" fill="#228FFE"/>
</svg>
