{
  "colors" : [
	{
	  "color" : {
		"color-space" : "srgb",
		"components" : {
		  "alpha" : "1.000",
		  "blue" : "0x90",
		  "green" : "0x2B",
		  "red" : "0x7C"
		}
	  },
	  "idiom" : "universal"
	}
  ],
  "info" : {
	"author" : "xcode",
	"version" : 1
  }
}
